EESchema Schematic File Version 2
LIBS:power
LIBS:device
LIBS:transistors
LIBS:conn
LIBS:linear
LIBS:regul
LIBS:74xx
LIBS:cmos4000
LIBS:adc-dac
LIBS:memory
LIBS:xilinx
LIBS:microcontrollers
LIBS:dsp
LIBS:microchip
LIBS:analog_switches
LIBS:motorola
LIBS:texas
LIBS:intel
LIBS:audio
LIBS:interface
LIBS:digital-audio
LIBS:philips
LIBS:display
LIBS:cypress
LIBS:siliconi
LIBS:opto
LIBS:atmel
LIBS:contrib
LIBS:valves
LIBS:PL_connectors
LIBS:lpc11c24
LIBS:con-wago
LIBS:canrail_hw_switch-cache
EELAYER 25 0
EELAYER END
$Descr A4 11693 8268
encoding utf-8
Sheet 1 5
Title ""
Date ""
Rev ""
Comp ""
Comment1 ""
Comment2 ""
Comment3 ""
Comment4 ""
$EndDescr
$Comp
L LPC11C24FBD48/301 U3
U 1 1 565F605B
P 6350 3450
F 0 "U3" H 5400 4750 50  0000 C CNN
F 1 "LPC11C22FBD48/301" H 7000 2100 50  0000 C CNN
F 2 "Housings_QFP:LQFP-48_7x7mm_Pitch0.5mm" H 6400 3450 50  0001 C CNN
F 3 "" H 6350 3450 50  0000 C CNN
F 4 "2094285" H 6350 3450 60  0001 C CNN "farnell"
	1    6350 3450
	1    0    0    -1  
$EndComp
$Comp
L 4P4C J1
U 1 1 5660228C
P 1800 3150
F 0 "J1" H 2000 3650 60  0000 C CNN
F 1 "4P4C" H 1650 3650 60  0000 C CNN
F 2 "PL_connectors:A-2014-3-4-N-T-R_059A" H 1800 3150 60  0001 C CNN
F 3 "" H 1800 3150 60  0000 C CNN
F 4 "1560167" H 1800 3150 60  0001 C CNN "farnell"
	1    1800 3150
	0    -1   -1   0   
$EndComp
$Comp
L 4P4C J2
U 1 1 56602353
P 1800 3950
F 0 "J2" H 2000 4450 60  0000 C CNN
F 1 "4P4C" H 1650 4450 60  0000 C CNN
F 2 "PL_connectors:A-2014-3-4-N-T-R_059A" H 1800 3950 60  0001 C CNN
F 3 "" H 1800 3950 60  0000 C CNN
F 4 "1560167" H 1800 3950 60  0001 C CNN "farnell"
	1    1800 3950
	0    -1   -1   0   
$EndComp
$Comp
L GND #PWR01
U 1 1 5660255C
P 2650 4300
F 0 "#PWR01" H 2650 4050 50  0001 C CNN
F 1 "GND" H 2650 4150 50  0000 C CNN
F 2 "" H 2650 4300 50  0000 C CNN
F 3 "" H 2650 4300 50  0000 C CNN
	1    2650 4300
	1    0    0    -1  
$EndComp
$Comp
L VCC #PWR02
U 1 1 56602731
P 2350 2650
F 0 "#PWR02" H 2350 2500 50  0001 C CNN
F 1 "VCC" H 2350 2800 50  0000 C CNN
F 2 "" H 2350 2650 50  0000 C CNN
F 3 "" H 2350 2650 50  0000 C CNN
	1    2350 2650
	1    0    0    -1  
$EndComp
Text Label 2800 3600 0    60   ~ 0
CAN-
Text Label 2800 3500 0    60   ~ 0
CAN+
Text Label 5050 4050 2    60   ~ 0
CAN-
Text Label 5050 4150 2    60   ~ 0
CAN+
$Comp
L GND #PWR03
U 1 1 566037B1
P 6150 5100
F 0 "#PWR03" H 6150 4850 50  0001 C CNN
F 1 "GND" H 6150 4950 50  0000 C CNN
F 2 "" H 6150 5100 50  0000 C CNN
F 3 "" H 6150 5100 50  0000 C CNN
	1    6150 5100
	1    0    0    -1  
$EndComp
$Comp
L PWR_FLAG #FLG04
U 1 1 56605C5F
P 2750 2750
F 0 "#FLG04" H 2750 2845 50  0001 C CNN
F 1 "PWR_FLAG" H 2750 2930 50  0000 C CNN
F 2 "" H 2750 2750 50  0000 C CNN
F 3 "" H 2750 2750 50  0000 C CNN
	1    2750 2750
	0    1    1    0   
$EndComp
$Comp
L VCC #PWR05
U 1 1 566060FF
P 1250 5000
F 0 "#PWR05" H 1250 4850 50  0001 C CNN
F 1 "VCC" H 1250 5150 50  0000 C CNN
F 2 "" H 1250 5000 50  0000 C CNN
F 3 "" H 1250 5000 50  0000 C CNN
	1    1250 5000
	1    0    0    -1  
$EndComp
$Comp
L GND #PWR06
U 1 1 56606188
P 1950 5950
F 0 "#PWR06" H 1950 5700 50  0001 C CNN
F 1 "GND" H 1950 5800 50  0000 C CNN
F 2 "" H 1950 5950 50  0000 C CNN
F 3 "" H 1950 5950 50  0000 C CNN
	1    1950 5950
	1    0    0    -1  
$EndComp
$Comp
L LT1129CST-3.3 U1
U 1 1 566063D5
P 2250 5250
F 0 "U1" H 2000 5450 50  0000 C CNN
F 1 "UA78M33CKVURG3" H 2400 5450 50  0000 C CNN
F 2 "dpak:TO-252-3" H 2250 5350 50  0001 C CIN
F 3 "" H 2250 5250 50  0000 C CNN
F 4 "2075446" H 2250 5250 60  0001 C CNN "farnell"
	1    2250 5250
	1    0    0    -1  
$EndComp
Wire Wire Line
	2350 4100 2250 4100
Wire Wire Line
	2350 3300 2250 3300
Wire Wire Line
	2450 4000 2250 4000
Wire Wire Line
	2450 3200 2450 4000
Wire Wire Line
	2450 3200 2250 3200
Wire Wire Line
	2550 3850 2250 3850
Wire Wire Line
	2550 3050 2550 3850
Wire Wire Line
	2550 3050 2250 3050
Wire Wire Line
	2250 3750 2650 3750
Wire Wire Line
	2650 2950 2650 4300
Wire Wire Line
	2650 2950 2250 2950
Wire Wire Line
	2350 2650 2350 4100
Connection ~ 2650 3750
Connection ~ 2350 3300
Wire Wire Line
	2550 3600 2800 3600
Connection ~ 2550 3600
Wire Wire Line
	2450 3500 2800 3500
Connection ~ 2450 3500
Wire Wire Line
	5050 4050 5150 4050
Wire Wire Line
	5050 4150 5150 4150
Wire Wire Line
	6250 4900 6250 5000
Wire Wire Line
	6150 5000 6450 5000
Wire Wire Line
	6450 5000 6450 4900
Wire Wire Line
	6350 4900 6350 5000
Connection ~ 6350 5000
Wire Wire Line
	6150 5000 6150 5100
Connection ~ 6250 5000
Wire Wire Line
	2750 4200 2650 4200
Connection ~ 2650 4200
Wire Wire Line
	2750 2750 2350 2750
Connection ~ 2350 2750
Wire Wire Line
	1250 5000 1250 6500
Wire Wire Line
	1250 5200 1800 5200
Wire Wire Line
	1450 5400 1450 5200
Connection ~ 1450 5200
Wire Wire Line
	1450 5700 1450 5850
Wire Wire Line
	2250 5850 2250 5550
Connection ~ 2250 5850
$Comp
L C C5
U 1 1 56606815
P 2850 5550
F 0 "C5" H 2875 5650 50  0000 L CNN
F 1 "100n" H 2875 5450 50  0000 L CNN
F 2 "Capacitors_SMD:C_0603" H 2888 5400 50  0001 C CNN
F 3 "" H 2850 5550 50  0000 C CNN
	1    2850 5550
	1    0    0    -1  
$EndComp
$Comp
L C C7
U 1 1 566068BA
P 3150 5550
F 0 "C7" H 3175 5650 50  0000 L CNN
F 1 "100n" H 3175 5450 50  0000 L CNN
F 2 "Capacitors_SMD:C_0603" H 3188 5400 50  0001 C CNN
F 3 "" H 3150 5550 50  0000 C CNN
	1    3150 5550
	1    0    0    -1  
$EndComp
Wire Wire Line
	2700 5200 3550 5200
Wire Wire Line
	3550 5200 3550 5000
Wire Wire Line
	2850 5400 2850 5200
Connection ~ 2850 5200
Wire Wire Line
	3150 5400 3150 5200
Connection ~ 3150 5200
Wire Wire Line
	2850 5850 2850 5700
Connection ~ 2850 5850
Wire Wire Line
	3150 5850 3150 5700
$Comp
L +3.3V #PWR07
U 1 1 56606B13
P 3550 5000
F 0 "#PWR07" H 3550 4850 50  0001 C CNN
F 1 "+3.3V" H 3550 5140 50  0000 C CNN
F 2 "" H 3550 5000 50  0000 C CNN
F 3 "" H 3550 5000 50  0000 C CNN
	1    3550 5000
	1    0    0    -1  
$EndComp
Wire Wire Line
	1450 5850 3150 5850
$Comp
L +3.3V #PWR08
U 1 1 56607633
P 6550 1800
F 0 "#PWR08" H 6550 1650 50  0001 C CNN
F 1 "+3.3V" H 6550 1940 50  0000 C CNN
F 2 "" H 6550 1800 50  0000 C CNN
F 3 "" H 6550 1800 50  0000 C CNN
	1    6550 1800
	1    0    0    -1  
$EndComp
$Comp
L +5V #PWR09
U 1 1 566076C8
P 6150 1800
F 0 "#PWR09" H 6150 1650 50  0001 C CNN
F 1 "+5V" H 6150 1940 50  0000 C CNN
F 2 "" H 6150 1800 50  0000 C CNN
F 3 "" H 6150 1800 50  0000 C CNN
	1    6150 1800
	1    0    0    -1  
$EndComp
Wire Wire Line
	1950 5950 1950 5850
Connection ~ 1950 5850
$Comp
L LT1129CST-3.3 U2
U 1 1 56607E1B
P 2250 6550
F 0 "U2" H 2000 6750 50  0000 C CNN
F 1 "UA78M05CKVURG3" H 2400 6750 50  0000 C CNN
F 2 "dpak:TO-252-3" H 2250 6650 50  0001 C CIN
F 3 "" H 2250 6550 50  0000 C CNN
F 4 "2323452" H 2250 6550 60  0001 C CNN "farnell"
	1    2250 6550
	1    0    0    -1  
$EndComp
Wire Wire Line
	1250 6500 1800 6500
Connection ~ 1250 5200
Wire Wire Line
	2250 7250 2250 6850
Wire Wire Line
	1450 7250 2900 7250
Wire Wire Line
	2900 7250 2900 7000
$Comp
L GND #PWR010
U 1 1 5660818C
P 1950 7350
F 0 "#PWR010" H 1950 7100 50  0001 C CNN
F 1 "GND" H 1950 7200 50  0000 C CNN
F 2 "" H 1950 7350 50  0000 C CNN
F 3 "" H 1950 7350 50  0000 C CNN
	1    1950 7350
	1    0    0    -1  
$EndComp
$Comp
L C C6
U 1 1 566082B4
P 2900 6850
F 0 "C6" H 2925 6950 50  0000 L CNN
F 1 "100n" H 2925 6750 50  0000 L CNN
F 2 "Capacitors_SMD:C_0603" H 2938 6700 50  0001 C CNN
F 3 "" H 2900 6850 50  0000 C CNN
	1    2900 6850
	1    0    0    -1  
$EndComp
Wire Wire Line
	2900 6700 2900 6500
Wire Wire Line
	2700 6500 3100 6500
Wire Wire Line
	3100 6500 3100 6300
Connection ~ 2900 6500
$Comp
L +5V #PWR011
U 1 1 566084FB
P 3100 6300
F 0 "#PWR011" H 3100 6150 50  0001 C CNN
F 1 "+5V" H 3100 6440 50  0000 C CNN
F 2 "" H 3100 6300 50  0000 C CNN
F 3 "" H 3100 6300 50  0000 C CNN
	1    3100 6300
	1    0    0    -1  
$EndComp
$Comp
L Crystal Y1
U 1 1 56608AFE
P 4650 4900
F 0 "Y1" H 4650 5050 50  0000 C CNN
F 1 "12MHz" H 4650 4750 50  0000 C CNN
F 2 "Crystals:Crystal_HC49-SD_SMD" H 4650 4900 50  0001 C CNN
F 3 "" H 4650 4900 50  0000 C CNN
F 4 "1652551" H 4650 4900 60  0001 C CNN "farnell"
	1    4650 4900
	1    0    0    -1  
$EndComp
$Comp
L C C8
U 1 1 56608BB9
P 4300 5250
F 0 "C8" H 4325 5350 50  0000 L CNN
F 1 "18p" H 4325 5150 50  0000 L CNN
F 2 "Capacitors_SMD:C_0603" H 4338 5100 50  0001 C CNN
F 3 "" H 4300 5250 50  0000 C CNN
	1    4300 5250
	1    0    0    -1  
$EndComp
$Comp
L C C9
U 1 1 56608C73
P 5000 5250
F 0 "C9" H 5025 5350 50  0000 L CNN
F 1 "18p" H 5025 5150 50  0000 L CNN
F 2 "Capacitors_SMD:C_0603" H 5038 5100 50  0001 C CNN
F 3 "" H 5000 5250 50  0000 C CNN
	1    5000 5250
	1    0    0    -1  
$EndComp
Wire Wire Line
	4300 4550 4300 5100
Wire Wire Line
	4300 4550 5150 4550
Wire Wire Line
	4500 4900 4300 4900
Connection ~ 4300 4900
Wire Wire Line
	5000 4650 5000 5100
Wire Wire Line
	5000 4650 5150 4650
Wire Wire Line
	4800 4900 5000 4900
Connection ~ 5000 4900
$Comp
L GND #PWR012
U 1 1 56609176
P 4650 5600
F 0 "#PWR012" H 4650 5350 50  0001 C CNN
F 1 "GND" H 4650 5450 50  0000 C CNN
F 2 "" H 4650 5600 50  0000 C CNN
F 3 "" H 4650 5600 50  0000 C CNN
	1    4650 5600
	1    0    0    -1  
$EndComp
Wire Wire Line
	4300 5400 4300 5500
Wire Wire Line
	4300 5500 5000 5500
Wire Wire Line
	5000 5500 5000 5400
Wire Wire Line
	4650 5600 4650 5500
Connection ~ 4650 5500
$Comp
L R R1
U 1 1 5660A4A6
P 5050 2050
F 0 "R1" V 5130 2050 50  0000 C CNN
F 1 "10k" V 5050 2050 50  0000 C CNN
F 2 "Resistors_SMD:R_0603" V 4980 2050 50  0001 C CNN
F 3 "" H 5050 2050 50  0000 C CNN
	1    5050 2050
	1    0    0    -1  
$EndComp
$Comp
L +3.3V #PWR013
U 1 1 5660A6CB
P 5050 1800
F 0 "#PWR013" H 5050 1650 50  0001 C CNN
F 1 "+3.3V" H 5050 1940 50  0000 C CNN
F 2 "" H 5050 1800 50  0000 C CNN
F 3 "" H 5050 1800 50  0000 C CNN
	1    5050 1800
	1    0    0    -1  
$EndComp
Wire Wire Line
	5050 1800 5050 1900
Wire Wire Line
	4700 2300 5150 2300
Wire Wire Line
	5050 2200 5050 2300
Connection ~ 5050 2300
Text Label 4700 2300 2    60   ~ 0
~RESET~
Wire Wire Line
	4800 2300 4800 2200
Wire Wire Line
	4800 2200 4700 2200
Connection ~ 4800 2300
Text Label 4700 2200 2    60   ~ 0
JTAG_RESET
Wire Wire Line
	5150 3200 4700 3200
Wire Wire Line
	5150 3300 4700 3300
Text Label 4700 3200 2    60   ~ 0
JTAG_TDO_SWO
Text Label 4700 3300 2    60   ~ 0
JTAG_TCLK_SWCLK
Wire Wire Line
	7550 2600 7650 2600
Text Label 7650 2600 0    60   ~ 0
JTAG_TMS_SWDIO
Wire Wire Line
	5050 4250 5150 4250
$Comp
L GND #PWR014
U 1 1 5660D2A2
P 5050 4350
F 0 "#PWR014" H 5050 4100 50  0001 C CNN
F 1 "GND" H 5050 4200 50  0000 C CNN
F 2 "" H 5050 4350 50  0000 C CNN
F 3 "" H 5050 4350 50  0000 C CNN
	1    5050 4350
	1    0    0    -1  
$EndComp
Wire Wire Line
	5050 4350 5050 4250
$Comp
L CONN_01X09 P1
U 1 1 5660D917
P 1750 1450
F 0 "P1" H 1750 1950 50  0000 C CNN
F 1 "PROG" V 1850 1450 50  0000 C CNN
F 2 "Socket_Strips:Socket_Strip_Straight_1x09" H 1750 1450 50  0001 C CNN
F 3 "" H 1750 1450 50  0000 C CNN
	1    1750 1450
	-1   0    0    -1  
$EndComp
Wire Wire Line
	1950 1150 2050 1150
Wire Wire Line
	1950 1250 2050 1250
Wire Wire Line
	1950 1350 2050 1350
Wire Wire Line
	1950 1550 2050 1550
Wire Wire Line
	1950 1750 2300 1750
Text Label 2050 1150 0    60   ~ 0
JTAG_TMS_SWDIO
Text Label 2050 1250 0    60   ~ 0
JTAG_TCLK_SWCLK
Text Label 2050 1350 0    60   ~ 0
JTAG_TDO_SWO
Text Label 2050 1550 0    60   ~ 0
JTAG_RESET
$Comp
L GND #PWR015
U 1 1 5660EAA6
P 2300 1850
F 0 "#PWR015" H 2300 1600 50  0001 C CNN
F 1 "GND" H 2300 1700 50  0000 C CNN
F 2 "" H 2300 1850 50  0000 C CNN
F 3 "" H 2300 1850 50  0000 C CNN
	1    2300 1850
	1    0    0    -1  
$EndComp
Wire Wire Line
	2300 1750 2300 1850
NoConn ~ 1950 1050
NoConn ~ 1950 1450
NoConn ~ 1950 1650
NoConn ~ 1950 1850
Wire Wire Line
	1450 6800 1450 6500
Connection ~ 1450 6500
Connection ~ 2250 7250
Wire Wire Line
	1450 7250 1450 7100
Wire Wire Line
	1950 7350 1950 7250
Connection ~ 1950 7250
$Sheet
S 9150 2100 1050 450 
U 566126D4
F0 "switchdriver1" 60
F1 "switchdriver.sch" 60
F2 "IN_A" I L 9150 2250 60 
F3 "IN_B" I L 9150 2450 60 
F4 "VCC" I R 10200 2250 60 
F5 "GND" I R 10200 2450 60 
$EndSheet
$Sheet
S 9150 2900 1050 450 
U 56613B07
F0 "switchdriver2" 60
F1 "switchdriver.sch" 60
F2 "IN_A" I L 9150 3050 60 
F3 "IN_B" I L 9150 3250 60 
F4 "VCC" I R 10200 3050 60 
F5 "GND" I R 10200 3250 60 
$EndSheet
$Sheet
S 9150 3700 1050 450 
U 56613EA0
F0 "switchdriver3" 60
F1 "switchdriver.sch" 60
F2 "IN_A" I L 9150 3850 60 
F3 "IN_B" I L 9150 4050 60 
F4 "VCC" I R 10200 3850 60 
F5 "GND" I R 10200 4050 60 
$EndSheet
$Sheet
S 9150 4500 1050 450 
U 56613EA6
F0 "switchdriver4" 60
F1 "switchdriver.sch" 60
F2 "IN_A" I L 9150 4650 60 
F3 "IN_B" I L 9150 4850 60 
F4 "VCC" I R 10200 4650 60 
F5 "GND" I R 10200 4850 60 
$EndSheet
Wire Wire Line
	10400 2000 10400 5100
Wire Wire Line
	10600 2000 10600 5100
$Comp
L VCC #PWR016
U 1 1 56614967
P 10400 2000
F 0 "#PWR016" H 10400 1850 50  0001 C CNN
F 1 "VCC" H 10400 2150 50  0000 C CNN
F 2 "" H 10400 2000 50  0000 C CNN
F 3 "" H 10400 2000 50  0000 C CNN
	1    10400 2000
	1    0    0    -1  
$EndComp
$Comp
L GND #PWR017
U 1 1 56614A3E
P 10600 2000
F 0 "#PWR017" H 10600 1750 50  0001 C CNN
F 1 "GND" H 10600 1850 50  0000 C CNN
F 2 "" H 10600 2000 50  0000 C CNN
F 3 "" H 10600 2000 50  0000 C CNN
	1    10600 2000
	-1   0    0    1   
$EndComp
Wire Wire Line
	10200 2250 10400 2250
Connection ~ 10400 2250
Wire Wire Line
	10200 2450 10600 2450
Connection ~ 10600 2450
Wire Wire Line
	10200 3050 10400 3050
Connection ~ 10400 3050
Wire Wire Line
	10200 3250 10600 3250
Connection ~ 10600 3250
Wire Wire Line
	10200 3850 10400 3850
Connection ~ 10400 3850
Wire Wire Line
	10200 4050 10600 4050
Connection ~ 10600 4050
Wire Wire Line
	10200 4650 10400 4650
Connection ~ 10400 4650
Wire Wire Line
	10200 4850 10600 4850
Connection ~ 10600 4850
Wire Wire Line
	9150 2250 9050 2250
Wire Wire Line
	9150 2450 9050 2450
Wire Wire Line
	9150 3050 9050 3050
Wire Wire Line
	9150 3250 9050 3250
Wire Wire Line
	9150 3850 9050 3850
Wire Wire Line
	9150 4050 9050 4050
Wire Wire Line
	9150 4650 9050 4650
Wire Wire Line
	9150 4850 9050 4850
Text Label 9050 2250 2    60   ~ 0
SW1A
Text Label 9050 2450 2    60   ~ 0
SW1B
Text Label 9050 3050 2    60   ~ 0
SW2A
Text Label 9050 3250 2    60   ~ 0
SW2B
Text Label 9050 3850 2    60   ~ 0
SW3A
Text Label 9050 4050 2    60   ~ 0
SW3B
Text Label 9050 4650 2    60   ~ 0
SW4A
Text Label 9050 4850 2    60   ~ 0
SW4B
NoConn ~ 5150 2600
NoConn ~ 5150 2700
NoConn ~ 5150 2800
NoConn ~ 5150 2900
NoConn ~ 5150 3100
NoConn ~ 5150 3400
NoConn ~ 5150 3550
NoConn ~ 5150 3650
NoConn ~ 5150 3750
NoConn ~ 5150 3850
NoConn ~ 7550 3300
NoConn ~ 7550 3400
NoConn ~ 7550 3650
NoConn ~ 7550 3750
NoConn ~ 7550 3850
NoConn ~ 7550 3950
NoConn ~ 7550 4350
NoConn ~ 7550 4450
NoConn ~ 5150 3000
NoConn ~ 7550 3550
$Comp
L PWR_FLAG #FLG018
U 1 1 56605BD6
P 2750 4200
F 0 "#FLG018" H 2750 4295 50  0001 C CNN
F 1 "PWR_FLAG" H 2750 4380 50  0000 C CNN
F 2 "" H 2750 4200 50  0000 C CNN
F 3 "" H 2750 4200 50  0000 C CNN
	1    2750 4200
	0    1    1    0   
$EndComp
$Comp
L VCC #PWR019
U 1 1 56614831
P 3350 3100
F 0 "#PWR019" H 3350 2950 50  0001 C CNN
F 1 "VCC" H 3350 3250 50  0000 C CNN
F 2 "" H 3350 3100 50  0000 C CNN
F 3 "" H 3350 3100 50  0000 C CNN
	1    3350 3100
	1    0    0    -1  
$EndComp
$Comp
L GND #PWR020
U 1 1 566148CF
P 3350 3700
F 0 "#PWR020" H 3350 3450 50  0001 C CNN
F 1 "GND" H 3350 3550 50  0000 C CNN
F 2 "" H 3350 3700 50  0000 C CNN
F 3 "" H 3350 3700 50  0000 C CNN
	1    3350 3700
	1    0    0    -1  
$EndComp
$Comp
L CP C14
U 1 1 566149E0
P 3350 3400
F 0 "C14" H 3375 3500 50  0000 L CNN
F 1 "33u 50V" H 3375 3300 50  0000 L CNN
F 2 "Capacitors_SMD:c_elec_6.3x7.7" H 3388 3250 30  0001 C CNN
F 3 "" H 3350 3400 60  0000 C CNN
F 4 "1850119" H 3350 3400 60  0001 C CNN "farnell"
	1    3350 3400
	1    0    0    -1  
$EndComp
Wire Wire Line
	3350 3100 3350 3250
Wire Wire Line
	3350 3550 3350 3700
$Comp
L CP C1
U 1 1 5661C447
P 1450 5550
F 0 "C1" H 1475 5650 50  0000 L CNN
F 1 "1u" H 1475 5450 50  0000 L CNN
F 2 "Capacitors_SMD:C_0603" H 1488 5400 30  0001 C CNN
F 3 "" H 1450 5550 60  0000 C CNN
	1    1450 5550
	1    0    0    -1  
$EndComp
$Comp
L CP C2
U 1 1 5661C530
P 1450 6950
F 0 "C2" H 1475 7050 50  0000 L CNN
F 1 "1u" H 1475 6850 50  0000 L CNN
F 2 "Capacitors_SMD:C_0603" H 1488 6800 30  0001 C CNN
F 3 "" H 1450 6950 60  0000 C CNN
	1    1450 6950
	1    0    0    -1  
$EndComp
Wire Wire Line
	7550 2700 7650 2700
Wire Wire Line
	7550 2800 7650 2800
Wire Wire Line
	7550 2900 7650 2900
Wire Wire Line
	7550 3000 7650 3000
Wire Wire Line
	7550 3100 7650 3100
Text Label 7650 2300 0    60   ~ 0
SW1A
Text Label 7650 2400 0    60   ~ 0
SW1B
Text Label 7650 2500 0    60   ~ 0
SW2A
Text Label 7650 2700 0    60   ~ 0
SW2B
Text Label 7650 2800 0    60   ~ 0
SW3A
Text Label 7650 2900 0    60   ~ 0
SW3B
Text Label 7650 3000 0    60   ~ 0
SW4A
Text Label 7650 3100 0    60   ~ 0
SW4B
Wire Wire Line
	7550 2500 7650 2500
Wire Wire Line
	7550 2400 7650 2400
Wire Wire Line
	7550 2300 7650 2300
$Comp
L R R10
U 1 1 56643317
P 4400 6450
F 0 "R10" V 4480 6450 50  0000 C CNN
F 1 "320" V 4400 6450 50  0000 C CNN
F 2 "Resistors_SMD:R_0603" V 4330 6450 50  0001 C CNN
F 3 "" H 4400 6450 50  0000 C CNN
	1    4400 6450
	1    0    0    -1  
$EndComp
$Comp
L R R11
U 1 1 56643433
P 4700 6450
F 0 "R11" V 4780 6450 50  0000 C CNN
F 1 "150" V 4700 6450 50  0000 C CNN
F 2 "Resistors_SMD:R_0603" V 4630 6450 50  0001 C CNN
F 3 "" H 4700 6450 50  0000 C CNN
	1    4700 6450
	1    0    0    -1  
$EndComp
$Comp
L +5V #PWR021
U 1 1 566437AA
P 4400 6200
F 0 "#PWR021" H 4400 6050 50  0001 C CNN
F 1 "+5V" H 4400 6340 50  0000 C CNN
F 2 "" H 4400 6200 50  0000 C CNN
F 3 "" H 4400 6200 50  0000 C CNN
	1    4400 6200
	1    0    0    -1  
$EndComp
$Comp
L +3.3V #PWR022
U 1 1 56643884
P 4700 6200
F 0 "#PWR022" H 4700 6050 50  0001 C CNN
F 1 "+3.3V" H 4700 6340 50  0000 C CNN
F 2 "" H 4700 6200 50  0000 C CNN
F 3 "" H 4700 6200 50  0000 C CNN
	1    4700 6200
	1    0    0    -1  
$EndComp
$Comp
L LED D5
U 1 1 5664395E
P 4400 6900
F 0 "D5" H 4400 7000 50  0000 C CNN
F 1 "RED" H 4400 6800 50  0000 C CNN
F 2 "LEDs:LED-0603" H 4400 6900 50  0001 C CNN
F 3 "" H 4400 6900 50  0000 C CNN
F 4 "2463998" H 4400 6900 60  0001 C CNN "farnell"
	1    4400 6900
	0    -1   -1   0   
$EndComp
$Comp
L LED D6
U 1 1 56643A58
P 4700 6900
F 0 "D6" H 4700 7000 50  0000 C CNN
F 1 "RED" H 4700 6800 50  0000 C CNN
F 2 "LEDs:LED-0603" H 4700 6900 50  0001 C CNN
F 3 "" H 4700 6900 50  0000 C CNN
F 4 "2463998" H 4700 6900 60  0001 C CNN "farnell"
	1    4700 6900
	0    -1   -1   0   
$EndComp
$Comp
L GND #PWR023
U 1 1 56643B41
P 4400 7200
F 0 "#PWR023" H 4400 6950 50  0001 C CNN
F 1 "GND" H 4400 7050 50  0000 C CNN
F 2 "" H 4400 7200 50  0000 C CNN
F 3 "" H 4400 7200 50  0000 C CNN
	1    4400 7200
	1    0    0    -1  
$EndComp
$Comp
L GND #PWR024
U 1 1 56643C21
P 4700 7200
F 0 "#PWR024" H 4700 6950 50  0001 C CNN
F 1 "GND" H 4700 7050 50  0000 C CNN
F 2 "" H 4700 7200 50  0000 C CNN
F 3 "" H 4700 7200 50  0000 C CNN
	1    4700 7200
	1    0    0    -1  
$EndComp
Wire Wire Line
	4400 6200 4400 6300
Wire Wire Line
	4400 6600 4400 6700
Wire Wire Line
	4400 7100 4400 7200
Wire Wire Line
	4700 6200 4700 6300
Wire Wire Line
	4700 6600 4700 6700
Wire Wire Line
	4700 7100 4700 7200
$Comp
L R R12
U 1 1 56644E4F
P 5000 6450
F 0 "R12" V 5080 6450 50  0000 C CNN
F 1 "110" V 5000 6450 50  0000 C CNN
F 2 "Resistors_SMD:R_0603" V 4930 6450 50  0001 C CNN
F 3 "" H 5000 6450 50  0000 C CNN
	1    5000 6450
	1    0    0    -1  
$EndComp
$Comp
L LED D7
U 1 1 56644E56
P 5000 6900
F 0 "D7" H 5000 7000 50  0000 C CNN
F 1 "GREEN" H 5000 6800 50  0000 C CNN
F 2 "LEDs:LED-0603" H 5000 6900 50  0001 C CNN
F 3 "" H 5000 6900 50  0000 C CNN
F 4 "2426215" H 5000 6900 60  0001 C CNN "farnell"
	1    5000 6900
	0    -1   -1   0   
$EndComp
$Comp
L GND #PWR025
U 1 1 56644E5C
P 5000 7200
F 0 "#PWR025" H 5000 6950 50  0001 C CNN
F 1 "GND" H 5000 7050 50  0000 C CNN
F 2 "" H 5000 7200 50  0000 C CNN
F 3 "" H 5000 7200 50  0000 C CNN
	1    5000 7200
	1    0    0    -1  
$EndComp
Wire Wire Line
	5000 6200 5000 6300
Wire Wire Line
	5000 6600 5000 6700
Wire Wire Line
	5000 7100 5000 7200
$Comp
L R R14
U 1 1 5664528A
P 5600 6450
F 0 "R14" V 5680 6450 50  0000 C CNN
F 1 "110" V 5600 6450 50  0000 C CNN
F 2 "Resistors_SMD:R_0603" V 5530 6450 50  0001 C CNN
F 3 "" H 5600 6450 50  0000 C CNN
	1    5600 6450
	1    0    0    -1  
$EndComp
$Comp
L LED D9
U 1 1 56645291
P 5600 6900
F 0 "D9" H 5600 7000 50  0000 C CNN
F 1 "GREEN" H 5600 6800 50  0000 C CNN
F 2 "LEDs:LED-0603" H 5600 6900 50  0001 C CNN
F 3 "" H 5600 6900 50  0000 C CNN
F 4 "2426215" H 5600 6900 60  0001 C CNN "farnell"
	1    5600 6900
	0    -1   -1   0   
$EndComp
$Comp
L GND #PWR026
U 1 1 56645297
P 5600 7200
F 0 "#PWR026" H 5600 6950 50  0001 C CNN
F 1 "GND" H 5600 7050 50  0000 C CNN
F 2 "" H 5600 7200 50  0000 C CNN
F 3 "" H 5600 7200 50  0000 C CNN
	1    5600 7200
	1    0    0    -1  
$EndComp
Wire Wire Line
	5600 6200 5600 6300
Wire Wire Line
	5600 6600 5600 6700
Wire Wire Line
	5600 7100 5600 7200
$Comp
L R R13
U 1 1 566453FA
P 5300 6450
F 0 "R13" V 5380 6450 50  0000 C CNN
F 1 "110" V 5300 6450 50  0000 C CNN
F 2 "Resistors_SMD:R_0603" V 5230 6450 50  0001 C CNN
F 3 "" H 5300 6450 50  0000 C CNN
	1    5300 6450
	1    0    0    -1  
$EndComp
$Comp
L LED D8
U 1 1 56645401
P 5300 6900
F 0 "D8" H 5300 7000 50  0000 C CNN
F 1 "GREEN" H 5300 6800 50  0000 C CNN
F 2 "LEDs:LED-0603" H 5300 6900 50  0001 C CNN
F 3 "" H 5300 6900 50  0000 C CNN
F 4 "2426215" H 5300 6900 60  0001 C CNN "farnell"
	1    5300 6900
	0    -1   -1   0   
$EndComp
$Comp
L GND #PWR027
U 1 1 56645407
P 5300 7200
F 0 "#PWR027" H 5300 6950 50  0001 C CNN
F 1 "GND" H 5300 7050 50  0000 C CNN
F 2 "" H 5300 7200 50  0000 C CNN
F 3 "" H 5300 7200 50  0000 C CNN
	1    5300 7200
	1    0    0    -1  
$EndComp
Wire Wire Line
	5300 6200 5300 6300
Wire Wire Line
	5300 6600 5300 6700
Wire Wire Line
	5300 7100 5300 7200
Text Label 5000 6200 1    60   ~ 0
LED_A
Text Label 5300 6200 1    60   ~ 0
LED_B
Text Label 5600 6200 1    60   ~ 0
LED_C
Wire Wire Line
	5150 2500 5050 2500
Text Label 5050 2500 2    60   ~ 0
LED_C
Wire Wire Line
	7550 4050 7650 4050
Wire Wire Line
	7550 4150 7650 4150
Text Label 7650 4050 0    60   ~ 0
LED_B
Text Label 7650 4150 0    60   ~ 0
LED_A
Wire Wire Line
	6150 2050 6150 1800
Wire Wire Line
	6250 2050 6250 1900
Wire Wire Line
	6250 1900 6550 1900
Wire Wire Line
	6550 1900 6550 1800
Wire Wire Line
	6350 2050 6350 1900
Connection ~ 6350 1900
Wire Wire Line
	6450 2050 6450 1900
Connection ~ 6450 1900
$Comp
L CONN_01X02 P6
U 1 1 56845E96
P 3700 2450
F 0 "P6" H 3700 2600 50  0000 C CNN
F 1 "ISP_MODE" V 3800 2450 50  0000 C CNN
F 2 "Pin_Headers:Pin_Header_Straight_1x02" H 3700 2450 50  0001 C CNN
F 3 "" H 3700 2450 50  0000 C CNN
	1    3700 2450
	-1   0    0    1   
$EndComp
Wire Wire Line
	5150 2400 3900 2400
$Comp
L GND #PWR028
U 1 1 5684635A
P 4000 2600
F 0 "#PWR028" H 4000 2350 50  0001 C CNN
F 1 "GND" H 4000 2450 50  0000 C CNN
F 2 "" H 4000 2600 50  0000 C CNN
F 3 "" H 4000 2600 50  0000 C CNN
	1    4000 2600
	1    0    0    -1  
$EndComp
Wire Wire Line
	3900 2500 4000 2500
Wire Wire Line
	4000 2500 4000 2600
$EndSCHEMATC
